…
    ## Simple feature collection with 1440 features and 3 fields
    ## geometry type:  GEOMETRY
    ## dimension:      XY
    ## bbox:           xmin: -122.3423 ymin: 37.45419 xmax: -121.4692 ymax: 37.90582
    ## epsg (SRID):    4269
    ## proj4string:    +proj=longlat +datum=NAD83 +no_defs
    ## # A tibble: 1,440 x 4
    ## # Groups:   GEOID [360]
    ##    GEOID       education        estimate                       geometry
    ##    <chr>       <chr>               <dbl>         <sf_geometry [degree]>
    ##  1 06001400100 Bachelors           781   POLYGON ((-122.2469 37.8854...
    ##  2 06001400100 HS, no Bachelors    465   POLYGON ((-122.2469 37.8854...
    ##  3 06001400100 No HS diploma        32.0 POLYGON ((-122.2469 37.8854...
    ##  4 06001400100 Post-Bachelors     1200   POLYGON ((-122.2469 37.8854...
    ##  5 06001400200 Bachelors           557   POLYGON ((-122.2574 37.8431...
    ##  6 06001400200 HS, no Bachelors    251   POLYGON ((-122.2574 37.8431...
    ##  7 06001400200 No HS diploma        30.0 POLYGON ((-122.2574 37.8431...
    ##  8 06001400200 Post-Bachelors      721   POLYGON ((-122.2574 37.8431...
    ##  9 06001400300 Bachelors          1332   POLYGON ((-122.2642 37.84, ...
    ## 10 06001400300 HS, no Bachelors   1141   POLYGON ((-122.2642 37.84, ...
    ## # ... with 1,430 more rows
…
