…
~~~~ r
library(tidyverse)
investigated <- as.list(all_games, from = 1, to = solution_index[1])
investigated_df <- imap_dfr(
    investigated, 
    ~data_frame(timestamp = .y, 
                moves = moves(.x),
                manhattan = manhattan(.x),
                hamming = hamming(.x)))
investigated_df
~~~~

    ## # A tibble: 2,680 x 4
    ##    timestamp moves manhattan hamming
    ##        <int> <int>     <int>   <int>
    ##  1         1     1        12       7
    ##  2         2     1        12       6
    ##  3         3     2        11       6
    ##  4         4     3        10       6
    ##  5         5     2        13       7
    ##  6         6     3        12       6
    ##  7         7     4        11       6
    ##  8         8     5        10       6
    ##  9         9     3        12       7
    ## 10        10     3        12       6
    ## # ... with 2,670 more rows
…
