…
Each instance consists of a `capacity` and a set of `items`:

~~~~ r
capacity(ks)
~~~~

    ## [1] 19726

~~~~ r
items(ks)
~~~~

    ## # A tibble: 50 x 3
    ##       id weight value
    ##  * <int>  <int> <dbl>
    ##  1    46     50 128  
    ##  2    14     26  59.0
    ##  3    41     75 117  
    ##  4    49    195 284  
    ##  5    50    184 266  
    ##  6    36    184 260  
    ##  7    28    277 355  
    ##  8     7    220 277  
    ##  9    35    330 387  
    ## 10    33    195 222  
    ## # ... with 40 more rows
…
In order to actually see the items that were taken, I need to follow the
solution down the tree to the leaf node, which is when there are no more
items in the remaining sub-problem:

~~~~ r
solution_items <- solution %>% 
    stream_filter(function(x) n_items(x$problem) == 0) %>%
    purrr::pluck(1, "problem") %>% 
    taken_items
solution_items
~~~~

    ## # A tibble: 39 x 3
    ##       id weight value
    ##    <int>  <int> <dbl>
    ##  1    13    373   325
    ##  2    42    763   674
    ##  3    25    651   576
    ##  4    37    655   590
    ##  5     8    822   741
    ##  6    31    669   627
    ##  7    27    612   582
    ##  8    47    941   895
    ##  9    40    884   847
    ## 10    15    116   114
    ## # ... with 29 more rows
…
~~~~ r
library(tidyverse)
solution_df <- data_frame(
    timestamp = seq_len(optimal),
    lower_bound = stream_map(solution, lower_bound) %>% 
        as.list(from = 1, to = optimal) %>% as.numeric,
    upper_bound = stream_map(solution, upper_bound) %>%
        as.list(from = 1, to = optimal) %>% as.numeric) %>%
    mutate(best_seen = cummax(lower_bound))
solution_df
~~~~

    ## # A tibble: 70 x 4
    ##    timestamp lower_bound upper_bound best_seen
    ##        <int>       <dbl>       <dbl>     <dbl>
    ##  1         1       20295       20462     20295
    ##  2         2       20295       20462     20295
    ##  3         3       20295       20462     20295
    ##  4         4       20295       20462     20295
    ##  5         5       20295       20462     20295
    ##  6         6       20295       20462     20295
    ##  7         7       20295       20462     20295
    ##  8         8       20295       20462     20295
    ##  9         9       20295       20462     20295
    ## 10        10       20295       20462     20295
    ## # ... with 60 more rows
…
