…
We'll set up the data for the model as before:

~~~~ r
complex_event_report_smry <- summarize_reports(complex_event_reports)
complex_event_report_smry
~~~~

    ## # A tibble: 211 x 8
    ##    event_class source1 source2 source3 source4 source5 source6     n
    ##    <chr>         <int>   <int>   <int>   <int>   <int>   <int> <int>
    ##  1 a                 0       0       0       0       0       1   498
    ##  2 a                 0       0       0       0       1       0   476
    ##  3 a                 0       0       0       0       1       1   500
    ##  4 a                 0       0       0       1       0       0    54
    ##  5 a                 0       0       0       1       0       1    50
    ##  6 a                 0       0       0       1       1       0    57
    ##  7 a                 0       0       0       1       1       1    54
    ##  8 a                 0       0       1       0       0       0    51
    ##  9 a                 0       0       1       0       0       1    48
    ## 10 a                 0       0       1       0       1       0    63
    ## # ... with 201 more rows
…
~~~~ r
ce_estimates <- complex_event_data_model %>% 
    spread_draws(r_event_class[class, param], b_Intercept) %>% 
    filter(param == "Intercept") %>% 
    mutate(unreported_est = exp(r_event_class + b_Intercept)) %>% 
    ungroup

ce_estimates
~~~~

    ## # A tibble: 30,000 x 8
    ##    .chain .iteration .draw class param r_event_class b_Intercept
    ##     <int>      <int> <int> <chr> <chr>         <dbl>       <dbl>
    ##  1      1          1     1 a     Inte…       -2.02          8.28
    ##  2      1          1     1 b     Inte…       -1.05          8.28
    ##  3      1          1     1 c     Inte…       -1.45          8.28
    ##  4      1          1     1 d     Inte…       -0.795         8.28
    ##  5      1          1     1 e     Inte…       -0.909         8.28
    ##  6      1          2     2 a     Inte…       -1.37          7.54
    ##  7      1          2     2 b     Inte…       -0.0782        7.54
    ##  8      1          2     2 c     Inte…       -0.659         7.54
    ##  9      1          2     2 d     Inte…       -0.0439        7.54
    ## 10      1          2     2 e     Inte…       -0.252         7.54
    ## # ... with 29,990 more rows, and 1 more variable: unreported_est <dbl>
…
